Nummer,Datum,Wochentag,Menge [Liter],Preis [€],Preis/Liter [€],Sonstiges,Kilometerstand,Anmerkung
82,2024-01-03,Mittwoch,13.66,24.03,1.759 ,,, 
1,2023-11-30,Donnerstag,34.47,63.05,1.829,,149332,
2,2023-10-30,Montag,,0.00,0.000,154.75,,Batterie
3,2023-11-01,Mittwoch,32.58,63.82,1.959,,,
4,2023-08-24,Donnerstag,36.98,72.07,1.949,,148155,
5,,,,0.00,0.000,,138400,Ölwechsel
6,2023-07-29,Samstag,30.13,57.52,1.909,,,
7,2023-06-22,Donnerstag,39.08,75.78,1.939,,,
8,2023-06-08,Donnerstag,29.63,58.34,1.969,,,
9,2023-04-29,Samstag,39.59,74.79,1.889,,,
10,2023-03-30,Donnerstag,39.66,75.31,1.899,,144972,
11,2023-03-03,Freitag,43.13,78.02,1.809,10.99,,Basiswäache
12,2023-01-01,Sonntag,39.04,73.76,1.889,,,
13,2022-12-10,Samstag,38.41,63.72,1.659,,,
14,2022-10-27,Donnerstag,36.60,70.24,1.919,,,
15,2022-10-19,Mittwoch,31.59,59.67,1.889,9.99,140881,Waschanlage
16,2022-09-29,Samstag,39.81,74.80,1.879,,140279,
17,2022-08-21,Mo,29.19,48.72,1.669,12.99,138440,Waschanlage
18,2022-07-02,Samstag,27.92,50.23,1.799,,139001,
19,2022-06-01,Mittwoch,37.43,70.71,1.889,,138440,
20,2022-05-27,Freitag,24.94,50.35,2.019,,137815,
21,2022-05-25,Mittwoch,28.12,56.77,2.019,,138440,
22,2022-05-22,Sonntag,20.36,50.47,2.479,,138440,
23,2022-05-17,Dienstag,25.48,54.76,2.149,,136310,
24,2022-05-12,Donnerstag,,0.00,0.000,16.99,,Waschanlage
25,2022-04-19,Dienstag,29.72,59.71,2.009,9.99,,Waschanlage
26,2022-03-30,Mittwoch,41.12,82.61,2.009,,135245,
27,2022-03-21,Mo,7.39,15.81,2.139,,,
28,2022-01-21,Freitag,,0.00,0.000,9.99,,Waschanlage
29,2022-01-21,Freitag,40.51,70.85,1.749,,133646,
30,2021-12-29,Mittwoch,42.54,73.55,1.729,,133646,
31,2021-11-23,Dienstag,41.18,69.14,1.679,,132915,
32,2021-10-27,Mittwoch,25.56,40.87,1.599,,,
33,2021-10-18,Mo,39.08,63.27,1.619,,130357,
34,2021-10-16,Samstag,38.69,66.51,1.719,,132915,
35,2021-10-03,Sonntag,38.21,63.39,1.659,,131508,
36,2021-09-16,Donnerstag,28.42,48.57,1.709,,129663,
37,2021-08-21,Samstag,43.69,72.04,1.649,,129088,
38,2021-07-22,Donnerstag,39.56,63.70,1.610,9.99,128316,Waschanlage
39,2021-06-18,Freitag,32.92,50.01,1.519,,127676,
40,2021-04-12,Mo,41.70,60.01,1.439,,126999,
41,2020-12-19,Samstag,28.76,43.95,1.528,11.99,125739,Waschanlage
42,2020-12-19,Samstag,44.62,55.28,1.239,,125739,
43,2020-11-18,Mittwoch,43.98,54.49,1.239,,124958,
44,2020-10-27,Dienstag,40.33,49.16,1.219,,124184,
45,2020-10-07,Mittwoch,41.35,53.71,1.299,,,
46,2020-09-02,Mittwoch,38.99,55.33,1.419,,122648,
47,2020-08-29,Samstag,34.90,45.68,1.309,,121952,
48,2020-04-13,Montag,37.31,47.72,1.279,,119926,
49,2020-02-15,Samstag,41.28,58.97,1.429,8.99,118647,Waschanlage
50,2019-12-30,Montag,42.84,65.93,1.539,14.99,,Waschanlage
51,2019-12-01,Sonntag,36.85,51.55,1.399,,117195,
52,2019-10-25,Freitag,38.36,55.20,1.439,10.99,,
53,2019-09-02,Montag,37.73,56.93,1.509,,115954,
54,2019-07-13,Samstag,42.83,62.06,1.449,,115267,
55,2019-07-13,Samstag,34.25,57.51,1.679,,114494,
56,2019-06-05,Montag,29.18,46.95,1.609,8.99,,
57,2019-06-03,Montag,36.49,59.81,1.639,,113357,
58,2019-05-02,Donnerstag,38.87,60.60,1.559,,,
59,2019-03-20,Mittwoch,42.49,59.87,1.409,9.99,,Waschanlage
60,2019-03-18,Montag,29.14,40.18,1.379,15.00,,Vignette
61,2019-02-17,Sonntag,34.76,46.89,1.349,,109177,
62,2019-02-17,Sonntag,,0.00,0.000,8.99,,Waschanlage
63,2019-02-11,Montag,38.90,54.03,1.389,,108537,
64,2019-01-21,Montag,41.46,54.27,1.309,,107856,
65,2019-01-07,Montag,39.50,54.87,1.389,,107226,
66,2018-12-18,Dienstag,29.45,39.73,1.349,8.99,106526,
67,2018-11-21,Mittwoch,42.32,62.59,1.479,,106086,
68,2018-10-27,Samstag,39.45,59.53,1.509,8.99,105341,
69,2018-10-20,Samstag,34.77,52.12,1.499,,104676,
70,2018-09-26,Mittwoch,43.15,62.52,1.449,,,
71,2018-08-17,Freitag,29.16,44.84,1.538,8.99,102587,
72,2018-07-27,Freitag,35.34,52.25,1.478,8.99,,
73,2018-06-27,Mittwoch,40.02,59.59,1.489,,,
74,2018-03-09,Freitag,36.46,49.50,1.358,,,
75,2017-12-30,Samstag,30.56,42.14,1.379,8.99,,Waschanlage
76,2017-12-24,Sonntag,39.74,55.60,1.399,,,
77,2017-11-15,Mittwoch,43.62,61.90,1.419,,97056,
78,2017-10-24,Dienstag,40.08,55.27,1.379,,96273,
79,2017-10-13,Freitag,40.81,54.64,1.339,,95537,
80,2017-09-06,Mittwoch,39.12,54.73,1.399,,,
81,2017-08-17,Donnerstag,40.89,55.98,1.369,,93573,
