fid;name;status;strasse;plz;ort;schulform;traeger
1;Universitaet Potsdam;Aktiv;Am Neuen Palais 10;14469;Potsdam;Universitaet;oeffentlich
2;Filmuniversitaet Babelsberg KONRAD WOLF;Aktiv;Marlene-Dietrich-Allee 11;14482;Potsdam;Universitaet;oeffentlich
3;Fachhochschule Potsdam;Aktiv;Kiepenheuerallee 5;14469;Potsdam;Fachhochschule;oeffentlich
4;Hochschule Clara Hoffbauer Potsdam;Aktiv;Hermannswerder 7;14473;Potsdam;staatlich anerkannte Hochschule;privat
5;ESAB Fachhochschule fuer Sport und Management Potsdam;Aktiv;Olympischer Weg 7;14471;Potsdam;staatlich anerkannte Hochschule;privat
6;XU Exponential University of Applied Sciences;Aktiv;August-Bebel-Strasse 26-53;14482;Potsdam;staatlich anerkannte Hochschule;privat
7;HMU Health and Medical University Potsdam;Aktiv;Olympischer Weg 1;14471;Potsdam;staatlich anerkannte Hochschule;privat
8;Gisma University of Applied Sciences;Aktiv;Konrad-Zuse-Ring 11;14469;Potsdam;staatlich anerkannte Hochschule;privat
9;University of Europe for Applied Sciences;Aktiv;Konrad-Zuse-Ring 11;14469;Potsdam;staatlich anerkannte Hochschule;privat
10;HSD Hochschule Doepfer;Aktiv;Tuchmacherstr. 48b;14482;Potsdam;staatlich anerkannte Hochschule;privat
11;GU - Deutsche Hochschule fuer angewandte Wissenschaften;Aktiv;Jaegerallee 26;14469;Potsdam;staatlich anerkannte Hochschule;privat
